 
 {
  "responses": [
    {
      "labelAnnotations": [
        {
          "mid": "/m/01yrx",
          "description": "cat",
          "score": 0.92562944
        },
        {
          "mid": "/m/04rky",
          "description": "mammal",
          "score": 0.90815818
        },
        {
          "mid": "/m/01l7qd",
          "description": "whiskers",
          "score": 0.79939437
        },
        {
          "mid": "/m/07k6w8",
          "description": "small to medium sized cats",
          "score": 0.66373962
        },
        {
          "mid": "/m/0307l",
          "description": "cat like mammal",
          "score": 0.65950978
        }
      ],
      "textAnnotations": [
        {
          "locale": "da",
          "description": "KL 07 CA 6543\nIND\nTHEEALUTOIThOTTILVEINDIER.COMO\n",
          "boundingPoly": {
            "vertices": [
              {
                "x": 504,
                "y": 587
              },
              {
                "x": 1276,
                "y": 587
              },
              {
                "x": 1276,
                "y": 850
              },
              {
                "x": 504,
                "y": 850
              }
            ]
          }
        },
        {
          "description": "KL",
          "boundingPoly": {
            "vertices": [
              {
                "x": 530,
                "y": 587
              },
              {
                "x": 586,
                "y": 589
              },
              {
                "x": 584,
                "y": 643
              },
              {
                "x": 528,
                "y": 641
              }
            ]
          }
        },
        {
          "description": "07",
          "boundingPoly": {
            "vertices": [
              {
                "x": 594,
                "y": 590
              },
              {
                "x": 654,
                "y": 593
              },
              {
                "x": 652,
                "y": 647
              },
              {
                "x": 592,
                "y": 644
              }
            ]
          }
        },
        {
          "description": "CA",
          "boundingPoly": {
            "vertices": [
              {
                "x": 661,
                "y": 593
              },
              {
                "x": 720,
                "y": 596
              },
              {
                "x": 718,
                "y": 650
              },
              {
                "x": 659,
                "y": 647
              }
            ]
          }
        },
        {
          "description": "6543",
          "boundingPoly": {
            "vertices": [
              {
                "x": 727,
                "y": 596
              },
              {
                "x": 849,
                "y": 601
              },
              {
                "x": 847,
                "y": 655
              },
              {
                "x": 725,
                "y": 650
              }
            ]
          }
        },
        {
          "description": "IND",
          "boundingPoly": {
            "vertices": [
              {
                "x": 505,
                "y": 602
              },
              {
                "x": 527,
                "y": 604
              },
              {
                "x": 526,
                "y": 615
              },
              {
                "x": 504,
                "y": 613
              }
            ]
          }
        },
        {
          "description": "THEEALUTOIThOTTILVEINDIER.COMO",
          "boundingPoly": {
            "vertices": [
              {
                "x": 983,
                "y": 841
              },
              {
                "x": 1276,
                "y": 841
              },
              {
                "x": 1276,
                "y": 850
              },
              {
                "x": 983,
                "y": 850
              }
            ]
          }
        }
      ]
    }
  ]
  }